%YAML 1.1
%TAG !u! tag:unity3d.com,2011:
--- !u!114 &11400000
MonoBehaviour:
  m_ObjectHideFlags: 0
  m_CorrespondingSourceObject: {fileID: 0}
  m_PrefabInstance: {fileID: 0}
  m_PrefabAsset: {fileID: 0}
  m_GameObject: {fileID: 0}
  m_Enabled: 1
  m_EditorHideFlags: 0
  m_Script: {fileID: 11500000, guid: 468a46d0ae32c3544b7d98094e6448a9, type: 3}
  m_Name: AddressableAssetSettings
  m_EditorClassIdentifier: 
  m_DefaultGroup: e720b2fc3dc04964aa993584eb8cf651
  m_BuildRemoteCatalog: 0
  m_RemoteCatalogBuildPath:
    m_Id: 
  m_RemoteCatalogLoadPath:
    m_Id: 
  m_overridePlayerVersion: 
  m_GroupAssets:
  - {fileID: 11400000, guid: 6b8c583ac0b60b847b505b8d382546ee, type: 2}
  - {fileID: 11400000, guid: 8c540f87e500adc4e8daaeccb36839ef, type: 2}
  m_BuildSettings:
    m_CompileScriptsInVirtualMode: 0
    m_CleanupStreamingAssetsAfterBuilds: 1
    m_LogResourceManagerExceptions: 1
    m_BundleBuildPath: Temp/com.unity.addressables/AssetBundles
  m_ProfileSettings:
    m_Profiles:
    - m_InheritedParent: 
      m_Id: 8b9ee525a9c551f4b82ce39ede1bef48
      m_ProfileName: Default
      m_Values:
      - m_Id: 697110c5b2d324a42b1a5a35f452d6b2
        m_Value: '[UnityEditor.EditorUserBuildSettings.activeBuildTarget]'
      - m_Id: 45ce0c3ad00de6a43a14523ed52e1315
        m_Value: '[UnityEngine.AddressableAssets.Addressables.BuildPath]/[BuildTarget]'
      - m_Id: 7af45d6a72cddaa409d98e703ee3cae6
        m_Value: '{UnityEngine.AddressableAssets.Addressables.RuntimePath}/[BuildTarget]'
      - m_Id: 849c5616e226e8d42984f052fd76251f
        m_Value: ServerData/[BuildTarget]
      - m_Id: e44bac1155838a04b86c1e9fceea401a
        m_Value: http://localhost/[BuildTarget]
    m_ProfileEntryNames:
    - m_Id: 697110c5b2d324a42b1a5a35f452d6b2
      m_Name: BuildTarget
      m_InlineUsage: 0
    - m_Id: 45ce0c3ad00de6a43a14523ed52e1315
      m_Name: LocalBuildPath
      m_InlineUsage: 0
    - m_Id: 7af45d6a72cddaa409d98e703ee3cae6
      m_Name: LocalLoadPath
      m_InlineUsage: 0
    - m_Id: 849c5616e226e8d42984f052fd76251f
      m_Name: RemoteBuildPath
      m_InlineUsage: 0
    - m_Id: e44bac1155838a04b86c1e9fceea401a
      m_Name: RemoteLoadPath
      m_InlineUsage: 0
    m_ProfileVersion: 1
  m_LabelTable:
    m_LabelNames:
    - default
  m_SchemaTemplates: []
  m_GroupTemplateObjects:
  - {fileID: 11400000, guid: 2fa8860c5f0beee44ac642c1d6225978, type: 2}
  m_InitializationObjects: []
  m_CertificateHandlerType:
    m_AssemblyName: 
    m_ClassName: 
  m_ActivePlayerDataBuilderIndex: 3
  m_DataBuilders:
  - {fileID: 11400000, guid: e6738fd3222a5ca4584421a06da4be17, type: 2}
  - {fileID: 11400000, guid: fa21f1437d2209640b5341f6a2884f56, type: 2}
  - {fileID: 11400000, guid: 24b171c066438204a90714b1e81bd471, type: 2}
  - {fileID: 11400000, guid: 15d936d40162b8240a84876b25a8f579, type: 2}
  m_ActiveProfileId: 8b9ee525a9c551f4b82ce39ede1bef48
  m_HostingServicesManager:
    m_HostingServiceInfos: []
    m_Settings: {fileID: 11400000}
    m_NextInstanceId: 0
    m_RegisteredServiceTypeRefs: []
