%YAML 1.1
%TAG !u! tag:unity3d.com,2011:
--- !u!1 &6218579152990355068
GameObject:
  m_ObjectHideFlags: 0
  m_CorrespondingSourceObject: {fileID: 0}
  m_PrefabInstance: {fileID: 0}
  m_PrefabAsset: {fileID: 0}
  serializedVersion: 6
  m_Component:
  - component: {fileID: 7876996419365368156}
  - component: {fileID: 1433845253251723922}
  m_Layer: 0
  m_Name: PatrolCircuit
  m_TagString: Untagged
  m_Icon: {fileID: 3936346786652291628, guid: 0000000000000000d000000000000000, type: 0}
  m_NavMeshLayer: 0
  m_StaticEditorFlags: 0
  m_IsActive: 1
--- !u!4 &7876996419365368156
Transform:
  m_ObjectHideFlags: 0
  m_CorrespondingSourceObject: {fileID: 0}
  m_PrefabInstance: {fileID: 0}
  m_PrefabAsset: {fileID: 0}
  m_GameObject: {fileID: 6218579152990355068}
  m_LocalRotation: {x: 0, y: 0, z: 0, w: 1}
  m_LocalPosition: {x: -27.756527, y: 0.73549813, z: 1.5669628}
  m_LocalScale: {x: 1, y: 1, z: 1}
  m_Children: []
  m_Father: {fileID: 0}
  m_RootOrder: 0
  m_LocalEulerAnglesHint: {x: 0, y: 0, z: 0}
--- !u!114 &1433845253251723922
MonoBehaviour:
  m_ObjectHideFlags: 0
  m_CorrespondingSourceObject: {fileID: 0}
  m_PrefabInstance: {fileID: 0}
  m_PrefabAsset: {fileID: 0}
  m_GameObject: {fileID: 6218579152990355068}
  m_Enabled: 1
  m_EditorHideFlags: 0
  m_Script: {fileID: 11500000, guid: 4f7fa1d941323f84980ba8c722151fd0, type: 3}
  m_Name: 
  m_EditorClassIdentifier: 
  vertexColor: {r: 0.30072978, g: 0.30072978, b: 0.5849056, a: 1}
  edgeColor: {r: 0.5647059, g: 0.2963934, b: 0.25490198, a: 1}
  vertexColorSelected: {r: 0, g: 0, b: 1, a: 1}
  edgeColorSelected: {r: 0, g: 1, b: 0, a: 1}
  vertexVizMesh: {fileID: 4300028, guid: d288a0e4a2d923b46898986e979da643, type: 3}
