%YAML 1.1
%TAG !u! tag:unity3d.com,2011:
--- !u!221 &22100000
AnimatorOverrideController:
  m_ObjectHideFlags: 0
  m_CorrespondingSourceObject: {fileID: 0}
  m_PrefabInstance: {fileID: 0}
  m_PrefabAsset: {fileID: 0}
  m_Name: Fireball
  m_Controller: {fileID: 9100000, guid: 0fff5982ab4a15348b1522bb58f0e0a2, type: 2}
  m_Clips:
  - m_OriginalClip: {fileID: 7400000, guid: 1315bcd7509173f44bc6655b2673dd4d, type: 3}
    m_OverrideClip: {fileID: 7400000, guid: 04cb27dc01c081446ba2c02f2761f01d, type: 3}
