%YAML 1.1
%TAG !u! tag:unity3d.com,2011:
--- !u!135 &1902969274131201244
SphereCollider:
  m_ObjectHideFlags: 0
  m_CorrespondingSourceObject: {fileID: 0}
  m_PrefabInstance: {fileID: 0}
  m_PrefabAsset: {fileID: 0}
  m_GameObject: {fileID: 2303161670458362877}
  m_Material: {fileID: 0}
  m_IsTrigger: 1
  m_Enabled: 1
  serializedVersion: 2
  m_Radius: 0.5
  m_Center: {x: 0, y: 0, z: 0}
--- !u!1001 &1177104156237261250
PrefabInstance:
  m_ObjectHideFlags: 0
  serializedVersion: 2
  m_Modification:
    m_TransformParent: {fileID: 5230674989834503295}
    m_Modifications:
    - target: {fileID: 182542, guid: 5cd5599e01f32bd418f20a3b9eac1c57, type: 3}
      propertyPath: m_Name
      value: FX_FlameThrower
      objectReference: {fileID: 0}
    - target: {fileID: 479346, guid: 5cd5599e01f32bd418f20a3b9eac1c57, type: 3}
      propertyPath: m_LocalPosition.x
      value: 0
      objectReference: {fileID: 0}
    - target: {fileID: 479346, guid: 5cd5599e01f32bd418f20a3b9eac1c57, type: 3}
      propertyPath: m_LocalPosition.y
      value: 0
      objectReference: {fileID: 0}
    - target: {fileID: 479346, guid: 5cd5599e01f32bd418f20a3b9eac1c57, type: 3}
      propertyPath: m_LocalPosition.z
      value: 0
      objectReference: {fileID: 0}
    - target: {fileID: 479346, guid: 5cd5599e01f32bd418f20a3b9eac1c57, type: 3}
      propertyPath: m_LocalRotation.x
      value: 0
      objectReference: {fileID: 0}
    - target: {fileID: 479346, guid: 5cd5599e01f32bd418f20a3b9eac1c57, type: 3}
      propertyPath: m_LocalRotation.y
      value: 0
      objectReference: {fileID: 0}
    - target: {fileID: 479346, guid: 5cd5599e01f32bd418f20a3b9eac1c57, type: 3}
      propertyPath: m_LocalRotation.z
      value: 0
      objectReference: {fileID: 0}
    - target: {fileID: 479346, guid: 5cd5599e01f32bd418f20a3b9eac1c57, type: 3}
      propertyPath: m_LocalRotation.w
      value: 1
      objectReference: {fileID: 0}
    - target: {fileID: 479346, guid: 5cd5599e01f32bd418f20a3b9eac1c57, type: 3}
      propertyPath: m_RootOrder
      value: 1
      objectReference: {fileID: 0}
    - target: {fileID: 479346, guid: 5cd5599e01f32bd418f20a3b9eac1c57, type: 3}
      propertyPath: m_LocalEulerAnglesHint.x
      value: 0
      objectReference: {fileID: 0}
    - target: {fileID: 479346, guid: 5cd5599e01f32bd418f20a3b9eac1c57, type: 3}
      propertyPath: m_LocalEulerAnglesHint.y
      value: 0
      objectReference: {fileID: 0}
    - target: {fileID: 479346, guid: 5cd5599e01f32bd418f20a3b9eac1c57, type: 3}
      propertyPath: m_LocalEulerAnglesHint.z
      value: 0
      objectReference: {fileID: 0}
    m_RemovedComponents: []
  m_SourcePrefab: {fileID: 100100000, guid: 5cd5599e01f32bd418f20a3b9eac1c57, type: 3}
--- !u!1001 &7053398377082213565
PrefabInstance:
  m_ObjectHideFlags: 0
  serializedVersion: 2
  m_Modification:
    m_TransformParent: {fileID: 0}
    m_Modifications:
    - target: {fileID: 9085111895278100288, guid: 1e6875c7afb76284a82026aeffefe2a1,
        type: 3}
      propertyPath: m_Name
      value: Fireball
      objectReference: {fileID: 0}
    - target: {fileID: 2987473443334017218, guid: 1e6875c7afb76284a82026aeffefe2a1,
        type: 3}
      propertyPath: m_LocalPosition.x
      value: 0
      objectReference: {fileID: 0}
    - target: {fileID: 2987473443334017218, guid: 1e6875c7afb76284a82026aeffefe2a1,
        type: 3}
      propertyPath: m_LocalPosition.y
      value: 0
      objectReference: {fileID: 0}
    - target: {fileID: 2987473443334017218, guid: 1e6875c7afb76284a82026aeffefe2a1,
        type: 3}
      propertyPath: m_LocalPosition.z
      value: 0
      objectReference: {fileID: 0}
    - target: {fileID: 2987473443334017218, guid: 1e6875c7afb76284a82026aeffefe2a1,
        type: 3}
      propertyPath: m_LocalRotation.x
      value: 0
      objectReference: {fileID: 0}
    - target: {fileID: 2987473443334017218, guid: 1e6875c7afb76284a82026aeffefe2a1,
        type: 3}
      propertyPath: m_LocalRotation.y
      value: 0
      objectReference: {fileID: 0}
    - target: {fileID: 2987473443334017218, guid: 1e6875c7afb76284a82026aeffefe2a1,
        type: 3}
      propertyPath: m_LocalRotation.z
      value: 0
      objectReference: {fileID: 0}
    - target: {fileID: 2987473443334017218, guid: 1e6875c7afb76284a82026aeffefe2a1,
        type: 3}
      propertyPath: m_LocalRotation.w
      value: 1
      objectReference: {fileID: 0}
    - target: {fileID: 2987473443334017218, guid: 1e6875c7afb76284a82026aeffefe2a1,
        type: 3}
      propertyPath: m_RootOrder
      value: 0
      objectReference: {fileID: 0}
    - target: {fileID: 2987473443334017218, guid: 1e6875c7afb76284a82026aeffefe2a1,
        type: 3}
      propertyPath: m_LocalEulerAnglesHint.x
      value: 0
      objectReference: {fileID: 0}
    - target: {fileID: 2987473443334017218, guid: 1e6875c7afb76284a82026aeffefe2a1,
        type: 3}
      propertyPath: m_LocalEulerAnglesHint.y
      value: 0
      objectReference: {fileID: 0}
    - target: {fileID: 2987473443334017218, guid: 1e6875c7afb76284a82026aeffefe2a1,
        type: 3}
      propertyPath: m_LocalEulerAnglesHint.z
      value: 0
      objectReference: {fileID: 0}
    - target: {fileID: 2987473443334017218, guid: 1e6875c7afb76284a82026aeffefe2a1,
        type: 3}
      propertyPath: m_LocalScale.x
      value: 0.5
      objectReference: {fileID: 0}
    - target: {fileID: 2987473443334017218, guid: 1e6875c7afb76284a82026aeffefe2a1,
        type: 3}
      propertyPath: m_LocalScale.y
      value: 0.5
      objectReference: {fileID: 0}
    - target: {fileID: 2987473443334017218, guid: 1e6875c7afb76284a82026aeffefe2a1,
        type: 3}
      propertyPath: m_LocalScale.z
      value: 0.5
      objectReference: {fileID: 0}
    - target: {fileID: 8842211647138798443, guid: 1e6875c7afb76284a82026aeffefe2a1,
        type: 3}
      propertyPath: speed
      value: 5
      objectReference: {fileID: 0}
    - target: {fileID: 8842211647138798443, guid: 1e6875c7afb76284a82026aeffefe2a1,
        type: 3}
      propertyPath: impactParticles
      value: 
      objectReference: {fileID: 2302457091073469191, guid: 69d1b1037536b504884c93bb73d662db,
        type: 3}
    - target: {fileID: 486856961929010666, guid: 1e6875c7afb76284a82026aeffefe2a1,
        type: 3}
      propertyPath: m_IsActive
      value: 0
      objectReference: {fileID: 0}
    - target: {fileID: 3232908509139903099, guid: 1e6875c7afb76284a82026aeffefe2a1,
        type: 3}
      propertyPath: m_RootOrder
      value: 2
      objectReference: {fileID: 0}
    - target: {fileID: 3569056651378547776, guid: 1e6875c7afb76284a82026aeffefe2a1,
        type: 3}
      propertyPath: m_audioClip
      value: 
      objectReference: {fileID: 8300000, guid: b58fa8783b46ccf47bce520207b2454b, type: 3}
    - target: {fileID: 2617596631439245447, guid: 1e6875c7afb76284a82026aeffefe2a1,
        type: 3}
      propertyPath: audioClips.Array.size
      value: 0
      objectReference: {fileID: 0}
    - target: {fileID: 7072282199554461715, guid: 1e6875c7afb76284a82026aeffefe2a1,
        type: 3}
      propertyPath: audioClips.Array.size
      value: 1
      objectReference: {fileID: 0}
    - target: {fileID: 7072282199554461715, guid: 1e6875c7afb76284a82026aeffefe2a1,
        type: 3}
      propertyPath: audioClips.Array.data[0]
      value: 
      objectReference: {fileID: 8300000, guid: da0093ebe4323b846a8f67e40229df09, type: 3}
    m_RemovedComponents:
    - {fileID: 2840552509731345710, guid: 1e6875c7afb76284a82026aeffefe2a1, type: 3}
  m_SourcePrefab: {fileID: 100100000, guid: 1e6875c7afb76284a82026aeffefe2a1, type: 3}
--- !u!1 &2303161670458362877 stripped
GameObject:
  m_CorrespondingSourceObject: {fileID: 9085111895278100288, guid: 1e6875c7afb76284a82026aeffefe2a1,
    type: 3}
  m_PrefabInstance: {fileID: 7053398377082213565}
  m_PrefabAsset: {fileID: 0}
--- !u!4 &5230674989834503295 stripped
Transform:
  m_CorrespondingSourceObject: {fileID: 2987473443334017218, guid: 1e6875c7afb76284a82026aeffefe2a1,
    type: 3}
  m_PrefabInstance: {fileID: 7053398377082213565}
  m_PrefabAsset: {fileID: 0}
