%YAML 1.1
%TAG !u! tag:unity3d.com,2011:
--- !u!1001 &1907540242645665380
PrefabInstance:
  m_ObjectHideFlags: 0
  serializedVersion: 2
  m_Modification:
    m_TransformParent: {fileID: 0}
    m_Modifications:
    - target: {fileID: 7275412099290329058, guid: c256860ad8a015348a664a63d9713631,
        type: 3}
      propertyPath: m_Name
      value: Pickup_Bow
      objectReference: {fileID: 0}
    - target: {fileID: 654597811663659622, guid: c256860ad8a015348a664a63d9713631,
        type: 3}
      propertyPath: m_LocalPosition.x
      value: 0
      objectReference: {fileID: 0}
    - target: {fileID: 654597811663659622, guid: c256860ad8a015348a664a63d9713631,
        type: 3}
      propertyPath: m_LocalPosition.y
      value: 0
      objectReference: {fileID: 0}
    - target: {fileID: 654597811663659622, guid: c256860ad8a015348a664a63d9713631,
        type: 3}
      propertyPath: m_LocalPosition.z
      value: 0
      objectReference: {fileID: 0}
    - target: {fileID: 654597811663659622, guid: c256860ad8a015348a664a63d9713631,
        type: 3}
      propertyPath: m_LocalRotation.x
      value: 0
      objectReference: {fileID: 0}
    - target: {fileID: 654597811663659622, guid: c256860ad8a015348a664a63d9713631,
        type: 3}
      propertyPath: m_LocalRotation.y
      value: 0
      objectReference: {fileID: 0}
    - target: {fileID: 654597811663659622, guid: c256860ad8a015348a664a63d9713631,
        type: 3}
      propertyPath: m_LocalRotation.z
      value: 0
      objectReference: {fileID: 0}
    - target: {fileID: 654597811663659622, guid: c256860ad8a015348a664a63d9713631,
        type: 3}
      propertyPath: m_LocalRotation.w
      value: 1
      objectReference: {fileID: 0}
    - target: {fileID: 654597811663659622, guid: c256860ad8a015348a664a63d9713631,
        type: 3}
      propertyPath: m_RootOrder
      value: 0
      objectReference: {fileID: 0}
    - target: {fileID: 654597811663659622, guid: c256860ad8a015348a664a63d9713631,
        type: 3}
      propertyPath: m_LocalEulerAnglesHint.x
      value: 0
      objectReference: {fileID: 0}
    - target: {fileID: 654597811663659622, guid: c256860ad8a015348a664a63d9713631,
        type: 3}
      propertyPath: m_LocalEulerAnglesHint.y
      value: 0
      objectReference: {fileID: 0}
    - target: {fileID: 654597811663659622, guid: c256860ad8a015348a664a63d9713631,
        type: 3}
      propertyPath: m_LocalEulerAnglesHint.z
      value: 0
      objectReference: {fileID: 0}
    - target: {fileID: 5727595509686093675, guid: c256860ad8a015348a664a63d9713631,
        type: 3}
      propertyPath: m_RootOrder
      value: 1
      objectReference: {fileID: 0}
    - target: {fileID: 5727595509686093675, guid: c256860ad8a015348a664a63d9713631,
        type: 3}
      propertyPath: m_LocalPosition.x
      value: 0.174
      objectReference: {fileID: 0}
    - target: {fileID: 2420965729644036899, guid: c256860ad8a015348a664a63d9713631,
        type: 3}
      propertyPath: weapon
      value: 
      objectReference: {fileID: 11400000, guid: d0f1c6e15d04a8c4f9a4a360b9896796,
        type: 2}
    - target: {fileID: 2420965729644036899, guid: c256860ad8a015348a664a63d9713631,
        type: 3}
      propertyPath: weaponReference.m_AssetGUID
      value: d0f1c6e15d04a8c4f9a4a360b9896796
      objectReference: {fileID: 0}
    - target: {fileID: 2420965729644036899, guid: c256860ad8a015348a664a63d9713631,
        type: 3}
      propertyPath: weaponAsset.m_AssetGUID
      value: d0f1c6e15d04a8c4f9a4a360b9896796
      objectReference: {fileID: 0}
    m_RemovedComponents: []
  m_SourcePrefab: {fileID: 100100000, guid: c256860ad8a015348a664a63d9713631, type: 3}
--- !u!4 &1399889973974246402 stripped
Transform:
  m_CorrespondingSourceObject: {fileID: 654597811663659622, guid: c256860ad8a015348a664a63d9713631,
    type: 3}
  m_PrefabInstance: {fileID: 1907540242645665380}
  m_PrefabAsset: {fileID: 0}
--- !u!1001 &7982446257695682093
PrefabInstance:
  m_ObjectHideFlags: 0
  serializedVersion: 2
  m_Modification:
    m_TransformParent: {fileID: 1399889973974246402}
    m_Modifications:
    - target: {fileID: 1563655986059756, guid: 7f105c0c272e6c146b4b41cdc53ea356, type: 3}
      propertyPath: m_Name
      value: Simple Bow
      objectReference: {fileID: 0}
    - target: {fileID: 4281075886339594, guid: 7f105c0c272e6c146b4b41cdc53ea356, type: 3}
      propertyPath: m_LocalPosition.x
      value: 0
      objectReference: {fileID: 0}
    - target: {fileID: 4281075886339594, guid: 7f105c0c272e6c146b4b41cdc53ea356, type: 3}
      propertyPath: m_LocalPosition.y
      value: 0.017
      objectReference: {fileID: 0}
    - target: {fileID: 4281075886339594, guid: 7f105c0c272e6c146b4b41cdc53ea356, type: 3}
      propertyPath: m_LocalPosition.z
      value: -0.779
      objectReference: {fileID: 0}
    - target: {fileID: 4281075886339594, guid: 7f105c0c272e6c146b4b41cdc53ea356, type: 3}
      propertyPath: m_LocalRotation.x
      value: 0.7071068
      objectReference: {fileID: 0}
    - target: {fileID: 4281075886339594, guid: 7f105c0c272e6c146b4b41cdc53ea356, type: 3}
      propertyPath: m_LocalRotation.y
      value: 0
      objectReference: {fileID: 0}
    - target: {fileID: 4281075886339594, guid: 7f105c0c272e6c146b4b41cdc53ea356, type: 3}
      propertyPath: m_LocalRotation.z
      value: 0
      objectReference: {fileID: 0}
    - target: {fileID: 4281075886339594, guid: 7f105c0c272e6c146b4b41cdc53ea356, type: 3}
      propertyPath: m_LocalRotation.w
      value: 0.7071068
      objectReference: {fileID: 0}
    - target: {fileID: 4281075886339594, guid: 7f105c0c272e6c146b4b41cdc53ea356, type: 3}
      propertyPath: m_RootOrder
      value: 0
      objectReference: {fileID: 0}
    - target: {fileID: 4281075886339594, guid: 7f105c0c272e6c146b4b41cdc53ea356, type: 3}
      propertyPath: m_LocalEulerAnglesHint.x
      value: 90
      objectReference: {fileID: 0}
    - target: {fileID: 4281075886339594, guid: 7f105c0c272e6c146b4b41cdc53ea356, type: 3}
      propertyPath: m_LocalEulerAnglesHint.y
      value: 0
      objectReference: {fileID: 0}
    - target: {fileID: 4281075886339594, guid: 7f105c0c272e6c146b4b41cdc53ea356, type: 3}
      propertyPath: m_LocalEulerAnglesHint.z
      value: 0
      objectReference: {fileID: 0}
    m_RemovedComponents: []
  m_SourcePrefab: {fileID: 100100000, guid: 7f105c0c272e6c146b4b41cdc53ea356, type: 3}
