%YAML 1.1
%TAG !u! tag:unity3d.com,2011:
--- !u!1001 &4134345507683087297
PrefabInstance:
  m_ObjectHideFlags: 0
  serializedVersion: 2
  m_Modification:
    m_TransformParent: {fileID: 6855818217918766143}
    m_Modifications:
    - target: {fileID: 199514, guid: 626f1b816ba1ee64a9f7cea6ceb529cd, type: 3}
      propertyPath: m_Name
      value: SM_Prop_Pumpkin_01
      objectReference: {fileID: 0}
    - target: {fileID: 489180, guid: 626f1b816ba1ee64a9f7cea6ceb529cd, type: 3}
      propertyPath: m_LocalPosition.x
      value: 0
      objectReference: {fileID: 0}
    - target: {fileID: 489180, guid: 626f1b816ba1ee64a9f7cea6ceb529cd, type: 3}
      propertyPath: m_LocalPosition.y
      value: 0
      objectReference: {fileID: 0}
    - target: {fileID: 489180, guid: 626f1b816ba1ee64a9f7cea6ceb529cd, type: 3}
      propertyPath: m_LocalPosition.z
      value: 0
      objectReference: {fileID: 0}
    - target: {fileID: 489180, guid: 626f1b816ba1ee64a9f7cea6ceb529cd, type: 3}
      propertyPath: m_LocalRotation.x
      value: 0
      objectReference: {fileID: 0}
    - target: {fileID: 489180, guid: 626f1b816ba1ee64a9f7cea6ceb529cd, type: 3}
      propertyPath: m_LocalRotation.y
      value: 0
      objectReference: {fileID: 0}
    - target: {fileID: 489180, guid: 626f1b816ba1ee64a9f7cea6ceb529cd, type: 3}
      propertyPath: m_LocalRotation.z
      value: 0
      objectReference: {fileID: 0}
    - target: {fileID: 489180, guid: 626f1b816ba1ee64a9f7cea6ceb529cd, type: 3}
      propertyPath: m_LocalRotation.w
      value: 1
      objectReference: {fileID: 0}
    - target: {fileID: 489180, guid: 626f1b816ba1ee64a9f7cea6ceb529cd, type: 3}
      propertyPath: m_RootOrder
      value: 1
      objectReference: {fileID: 0}
    - target: {fileID: 489180, guid: 626f1b816ba1ee64a9f7cea6ceb529cd, type: 3}
      propertyPath: m_LocalEulerAnglesHint.x
      value: 0
      objectReference: {fileID: 0}
    - target: {fileID: 489180, guid: 626f1b816ba1ee64a9f7cea6ceb529cd, type: 3}
      propertyPath: m_LocalEulerAnglesHint.y
      value: 0
      objectReference: {fileID: 0}
    - target: {fileID: 489180, guid: 626f1b816ba1ee64a9f7cea6ceb529cd, type: 3}
      propertyPath: m_LocalEulerAnglesHint.z
      value: 0
      objectReference: {fileID: 0}
    - target: {fileID: 489180, guid: 626f1b816ba1ee64a9f7cea6ceb529cd, type: 3}
      propertyPath: m_LocalScale.x
      value: 2
      objectReference: {fileID: 0}
    - target: {fileID: 489180, guid: 626f1b816ba1ee64a9f7cea6ceb529cd, type: 3}
      propertyPath: m_LocalScale.y
      value: 2
      objectReference: {fileID: 0}
    - target: {fileID: 489180, guid: 626f1b816ba1ee64a9f7cea6ceb529cd, type: 3}
      propertyPath: m_LocalScale.z
      value: 2
      objectReference: {fileID: 0}
    m_RemovedComponents: []
  m_SourcePrefab: {fileID: 100100000, guid: 626f1b816ba1ee64a9f7cea6ceb529cd, type: 3}
--- !u!1001 &6210845853176233561
PrefabInstance:
  m_ObjectHideFlags: 0
  serializedVersion: 2
  m_Modification:
    m_TransformParent: {fileID: 0}
    m_Modifications:
    - target: {fileID: 7275412099290329058, guid: c256860ad8a015348a664a63d9713631,
        type: 3}
      propertyPath: m_Name
      value: Pickup_Pumpkin
      objectReference: {fileID: 0}
    - target: {fileID: 654597811663659622, guid: c256860ad8a015348a664a63d9713631,
        type: 3}
      propertyPath: m_LocalPosition.x
      value: 0
      objectReference: {fileID: 0}
    - target: {fileID: 654597811663659622, guid: c256860ad8a015348a664a63d9713631,
        type: 3}
      propertyPath: m_LocalPosition.y
      value: 0
      objectReference: {fileID: 0}
    - target: {fileID: 654597811663659622, guid: c256860ad8a015348a664a63d9713631,
        type: 3}
      propertyPath: m_LocalPosition.z
      value: 0
      objectReference: {fileID: 0}
    - target: {fileID: 654597811663659622, guid: c256860ad8a015348a664a63d9713631,
        type: 3}
      propertyPath: m_LocalRotation.x
      value: 0
      objectReference: {fileID: 0}
    - target: {fileID: 654597811663659622, guid: c256860ad8a015348a664a63d9713631,
        type: 3}
      propertyPath: m_LocalRotation.y
      value: 0
      objectReference: {fileID: 0}
    - target: {fileID: 654597811663659622, guid: c256860ad8a015348a664a63d9713631,
        type: 3}
      propertyPath: m_LocalRotation.z
      value: 0
      objectReference: {fileID: 0}
    - target: {fileID: 654597811663659622, guid: c256860ad8a015348a664a63d9713631,
        type: 3}
      propertyPath: m_LocalRotation.w
      value: 1
      objectReference: {fileID: 0}
    - target: {fileID: 654597811663659622, guid: c256860ad8a015348a664a63d9713631,
        type: 3}
      propertyPath: m_RootOrder
      value: 0
      objectReference: {fileID: 0}
    - target: {fileID: 654597811663659622, guid: c256860ad8a015348a664a63d9713631,
        type: 3}
      propertyPath: m_LocalEulerAnglesHint.x
      value: 0
      objectReference: {fileID: 0}
    - target: {fileID: 654597811663659622, guid: c256860ad8a015348a664a63d9713631,
        type: 3}
      propertyPath: m_LocalEulerAnglesHint.y
      value: 0
      objectReference: {fileID: 0}
    - target: {fileID: 654597811663659622, guid: c256860ad8a015348a664a63d9713631,
        type: 3}
      propertyPath: m_LocalEulerAnglesHint.z
      value: 0
      objectReference: {fileID: 0}
    - target: {fileID: 2420965729644036899, guid: c256860ad8a015348a664a63d9713631,
        type: 3}
      propertyPath: healthRestored
      value: 20
      objectReference: {fileID: 0}
    - target: {fileID: 7091576639813833053, guid: c256860ad8a015348a664a63d9713631,
        type: 3}
      propertyPath: m_Center.y
      value: 0.29
      objectReference: {fileID: 0}
    - target: {fileID: 7091576639813833053, guid: c256860ad8a015348a664a63d9713631,
        type: 3}
      propertyPath: m_Radius
      value: 0.5
      objectReference: {fileID: 0}
    m_RemovedComponents: []
  m_SourcePrefab: {fileID: 100100000, guid: c256860ad8a015348a664a63d9713631, type: 3}
--- !u!4 &6855818217918766143 stripped
Transform:
  m_CorrespondingSourceObject: {fileID: 654597811663659622, guid: c256860ad8a015348a664a63d9713631,
    type: 3}
  m_PrefabInstance: {fileID: 6210845853176233561}
  m_PrefabAsset: {fileID: 0}
