%YAML 1.1
%TAG !u! tag:unity3d.com,2011:
--- !u!114 &11400000
MonoBehaviour:
  m_ObjectHideFlags: 0
  m_CorrespondingSourceObject: {fileID: 0}
  m_PrefabInstance: {fileID: 0}
  m_PrefabAsset: {fileID: 0}
  m_GameObject: {fileID: 0}
  m_Enabled: 1
  m_EditorHideFlags: 0
  m_Script: {fileID: 11500000, guid: 5aae897b0a4a5084fa880a09f9ba7ae2, type: 3}
  m_Name: Bow
  m_EditorClassIdentifier: 
  itemID: 14b5bede-1682-4c21-a369-dda17b9aff8c
  displayName: Bow
  description: 
  icon: {fileID: 21300000, guid: f4f1cb93a5d3e6f458f1ba0b0fef8c1d, type: 3}
  pickup: {fileID: 2195905733564149760, guid: 22304fea46407b9499531d18540d74c8, type: 3}
  stackable: 0
  allowedEquipLocation: 5
  timeBetweenAttacks: 1.5
  range: 10
  baseDamage: 10
  multiplierBonus: 0.2
  leftHanded: 1
  prefab: {fileID: 2590890358831586890, guid: 62674c43bdb29b142a2f8fd30e7d13a0, type: 3}
  cursorType: 8
  animatorOverride: {fileID: 22100000, guid: cea560a239927934aba834764bd4b9ee, type: 2}
  projectilePrefab: {fileID: 4130663119614980937, guid: f95470b5bd39f1141aee0479658b1ea4,
    type: 3}
