%YAML 1.1
%TAG !u! tag:unity3d.com,2011:
--- !u!114 &11400000
MonoBehaviour:
  m_ObjectHideFlags: 0
  m_CorrespondingSourceObject: {fileID: 0}
  m_PrefabInstance: {fileID: 0}
  m_PrefabAsset: {fileID: 0}
  m_GameObject: {fileID: 0}
  m_Enabled: 1
  m_EditorHideFlags: 0
  m_Script: {fileID: 11500000, guid: 5aae897b0a4a5084fa880a09f9ba7ae2, type: 3}
  m_Name: Bow_Homing
  m_EditorClassIdentifier: 
  itemID: 0221fef0-196c-4573-bed4-f45e31ac4a89
  displayName: Homing Bow
  description: 
  icon: {fileID: 21300000, guid: f4f1cb93a5d3e6f458f1ba0b0fef8c1d, type: 3}
  pickup: {fileID: 4480046482661396604, guid: 921b0bbca2e189c46bbd7b37751d09d6, type: 3}
  stackable: 0
  allowedEquipLocation: 5
  timeBetweenAttacks: 1.5
  range: 10
  baseDamage: 7
  multiplierBonus: 0
  leftHanded: 1
  prefab: {fileID: 1721985811452531859, guid: 18cb6ab722b6f7a458e02d63c8015905, type: 3}
  cursorType: 8
  animatorOverride: {fileID: 22100000, guid: cea560a239927934aba834764bd4b9ee, type: 2}
  projectilePrefab: {fileID: 2470870090824432216, guid: b9b013943afb4c94c8389c195a976694,
    type: 3}
